Big data analysis and visualisation: Session 2
…
Working again with mpg3, use the group_by verb to group this data frame by manufacturer and year. Then, for each unique pair of manufacturer and year, calculate the largest value of vol_per_cyl. Call this new column max_vol_per_cyl.

## Source: local data frame [30 x 3]
## Groups: manufacturer [?]
## 
##    manufacturer  year max_vol_per_cyl
##           <chr> <int>           <dbl>
## 1          audi  1999            0.47
## 2          audi  2008            0.52
## 3     chevrolet  1999            0.81
## 4     chevrolet  2008            0.88
## 5         dodge  1999            0.74
## 6         dodge  2008            0.71
## 7          ford  1999            0.70
## 8          ford  2008            0.68
## 9         honda  1999            0.40
## 10        honda  2008            0.50
## # ... with 20 more rows
…
