Sentiment analysis of a novel
…
tdm <- dunwich_corpus_cleaned %>% TermDocumentMatrix
tdm %>% findFreqTerms(lowfreq = 30)

##  [1] "dunwich"   "one"       "old"       "came"     
##  [5] "whateleys" "great"     "hill"      "whateley" 
##  [9] "wilbur"    "seemed"    "like"      "armitage"

Join with the VAD scores

tdm_long <- with(tdm, tibble(term = i, document = j, count = v)) %>% 
    mutate(term = factor(term, labels = Terms(tdm)) %>% as.character)
tdm_scored <- tdm_long %>% inner_join(VAD, by = c(term = "Word"))
tdm_scored

## # A tibble: 4,017 x 6
##    term      document count valence arousal dominance
##    <chr>        <int> <dbl>   <dbl>   <dbl>     <dbl>
##  1 horror           1     1    3.38    6.13      3.49
##  2 brain            4     1    6.22    3.35      6.28
##  3 reproduce        4     1    5.63    4.61      4.88
##  4 eternal          6     1    6.76    3.59      5.41
##  5 come             7     1    5.64    3.57      5.94
##  6 know             7     1    6.82    3.24      5.78
##  7 recital          7     1    4.7     4.2       5.23
##  8 sense            7     1    6.09    3.7       6.29
##  9 affect           8     1    5.65    3.61      6.39
## 10 conceive         8     1    5.63    4.95      5.92
## #  with 4,007 more rows
…
Load the tidytext library (installing it if necessary)

# install.packages('tidytext', dependencies = TRUE)
library(tidytext)

Create a data frame with each word, and counters for the paragraph and sentence number. Paragraphs are delimited by a single blank line, but to identify sentences, we use the unnest_tokens function with token = 'sentences'.

dunwich_tokens <- dunwich %>% select(-gutenberg_id) %>% mutate(para_num = cumsum(text == 
    ""), text = stringi::stri_encode(text, from = "ISO-8859-1", 
    to = "UTF-8")) %>% unnest_tokens(sentence, text, token = "sentences") %>% 
    mutate(sent_num = row_number()) %>% unnest_tokens(word, 
    sentence, token = "words") %>% mutate(word = removePunctuation(word))
dunwich_tokens

## # A tibble: 17,608 x 3
##    para_num sent_num word     
##       <int>    <int> <chr>    
##  1        0        1 the      
##  2        0        1 dunwich  
##  3        0        1 horror   
##  4        1        2 by       
##  5        1        2 h        
##  6        1        3 p        
##  7        1        4 lovecraft
##  8        3        5 gorgons  
##  9        3        5 and      
## 10        3        5 hydras   
## #  with 17,598 more rows

For a paragraph level analysis, we remove stop words, then count the number of times each remaining word appears in each paragraph.

word_counts <- dunwich_tokens %>% anti_join(get_stopwords()) %>% 
    count(para_num, word, sort = TRUE) %>% ungroup
word_counts

## # A tibble: 8,755 x 3
##    para_num word        n
##       <int> <chr>   <int>
##  1        8 one         7
##  2       20 ye          7
##  3       55 man         5
##  4       55 old         5
##  5       55 shall       5
##  6       55 sothoth     5
##  7       55 yog         5
##  8       81 like        5
##  9      102 earth       5
## 10      133 thing       5
## #  with 8,745 more rows
…
Paragraph- and sentence-level emotional analysis

scored_tokens <- dunwich_tokens %>% inner_join(VAD, by = c(word = "Word"))
scored_tokens

## # A tibble: 4,415 x 6
##    para_num sent_num word       valence arousal dominance
##       <int>    <int> <chr>        <dbl>   <dbl>     <dbl>
##  1        0        1 horror        3.38    6.13      3.49
##  2        3        5 dire          3       5         4.17
##  3        3        5 may           5.55    3.19      5.94
##  4        3        5 reproduce     5.63    4.61      4.88
##  5        3        5 brain         6.22    3.35      6.28
##  6        3        5 superstit    4.84    6.14      5.45
##  7        3        6 eternal       6.76    3.59      5.41
##  8        3        7 recital       4.7     4.2       5.23
##  9        3        7 know          6.82    3.24      5.78
## 10        3        7 sense         6.09    3.7       6.29
## #  with 4,405 more rows
…
