Data visualisation, web scraping, and text analysis in R: Session 2
…
In-class Work

J.M.T. Roos

Last updated: 2020-05-11 10:46:00

Excercise set 1

For Tasks 14 use the following data

library(tidyverse)
mpg %>% tbl_df

## # A tibble: 234 x 11
##    manufacturer model      displ  year   cyl trans      drv     cty   hwy fl    class  
##    <chr>        <chr>      <dbl> <int> <int> <chr>      <chr> <int> <int> <chr> <chr>  
##  1 audi         a4           1.8  1999     4 auto(l5)   f        18    29 p     compact
##  2 audi         a4           1.8  1999     4 manual(m5) f        21    29 p     compact
##  3 audi         a4           2    2008     4 manual(m6) f        20    31 p     compact
##  4 audi         a4           2    2008     4 auto(av)   f        21    30 p     compact
##  5 audi         a4           2.8  1999     6 auto(l5)   f        16    26 p     compact
##  6 audi         a4           2.8  1999     6 manual(m5) f        18    26 p     compact
##  7 audi         a4           3.1  2008     6 auto(av)   f        18    27 p     compact
##  8 audi         a4 quattro   1.8  1999     4 manual(m5) 4        18    26 p     compact
##  9 audi         a4 quattro   1.8  1999     4 auto(l5)   4        16    25 p     compact
## 10 audi         a4 quattro   2    2008     4 manual(m6) 4        20    28 p     compact
## #  with 224 more rows
…
Layer 2:

geom smooth

default stat and position

Exercise set 2

For Task 5, use the following data

library(tidyverse)
mpg %>% tbl_df

## # A tibble: 234 x 11
##    manufacturer model      displ  year   cyl trans      drv     cty   hwy fl    class  
##    <chr>        <chr>      <dbl> <int> <int> <chr>      <chr> <int> <int> <chr> <chr>  
##  1 audi         a4           1.8  1999     4 auto(l5)   f        18    29 p     compact
##  2 audi         a4           1.8  1999     4 manual(m5) f        21    29 p     compact
##  3 audi         a4           2    2008     4 manual(m6) f        20    31 p     compact
##  4 audi         a4           2    2008     4 auto(av)   f        21    30 p     compact
##  5 audi         a4           2.8  1999     6 auto(l5)   f        16    26 p     compact
##  6 audi         a4           2.8  1999     6 manual(m5) f        18    26 p     compact
##  7 audi         a4           3.1  2008     6 auto(av)   f        18    27 p     compact
##  8 audi         a4 quattro   1.8  1999     4 manual(m5) 4        18    26 p     compact
##  9 audi         a4 quattro   1.8  1999     4 auto(l5)   4        16    25 p     compact
## 10 audi         a4 quattro   2    2008     4 manual(m6) 4        20    28 p     compact
## #  with 224 more rows
…
Exercise set 3

For tasks 611, use the following data:

library(tidyverse)
data(mpg, package = "ggplot2")
mpg %>% tbl_df

## # A tibble: 234 x 11
##    manufacturer model      displ  year   cyl trans      drv     cty   hwy fl    class  
##    <chr>        <chr>      <dbl> <int> <int> <chr>      <chr> <int> <int> <chr> <chr>  
##  1 audi         a4           1.8  1999     4 auto(l5)   f        18    29 p     compact
##  2 audi         a4           1.8  1999     4 manual(m5) f        21    29 p     compact
##  3 audi         a4           2    2008     4 manual(m6) f        20    31 p     compact
##  4 audi         a4           2    2008     4 auto(av)   f        21    30 p     compact
##  5 audi         a4           2.8  1999     6 auto(l5)   f        16    26 p     compact
##  6 audi         a4           2.8  1999     6 manual(m5) f        18    26 p     compact
##  7 audi         a4           3.1  2008     6 auto(av)   f        18    27 p     compact
##  8 audi         a4 quattro   1.8  1999     4 manual(m5) 4        18    26 p     compact
##  9 audi         a4 quattro   1.8  1999     4 auto(l5)   4        16    25 p     compact
## 10 audi         a4 quattro   2    2008     4 manual(m6) 4        20    28 p     compact
## #  with 224 more rows

Task 6

Use the select verb to extract the following columns from mpg: manufacturer, model, displ, year, cyl, trans, cty, hwy and view the output, which should look something like this:

## # A tibble: 234 x 8
##    manufacturer model      displ  year   cyl trans        cty   hwy
##    <chr>        <chr>      <dbl> <int> <int> <chr>      <int> <int>
##  1 audi         a4           1.8  1999     4 auto(l5)      18    29
##  2 audi         a4           1.8  1999     4 manual(m5)    21    29
##  3 audi         a4           2    2008     4 manual(m6)    20    31
##  4 audi         a4           2    2008     4 auto(av)      21    30
##  5 audi         a4           2.8  1999     6 auto(l5)      16    26
##  6 audi         a4           2.8  1999     6 manual(m5)    18    26
##  7 audi         a4           3.1  2008     6 auto(av)      18    27
##  8 audi         a4 quattro   1.8  1999     4 manual(m5)    18    26
##  9 audi         a4 quattro   1.8  1999     4 auto(l5)      16    25
## 10 audi         a4 quattro   2    2008     4 manual(m6)    20    28
## #  with 224 more rows
Create a new data frame called mpg2 that contains this subset of columns (i.e.):

mpg2 <- mpg %>% [ your code from the previous step ]

Task 7

Working with mpg2, use the mutate verb to create two new columns:

displ2 is equal to the square of displacement (i.e., displ * displ or displ^2)

vol_per_cyl that is equal to displ divided by cyl (i.e., displ / cyl, rounded to the nearest 1/100th of a liter (i.e., two decimal places)

Your output should look like this:

## # A tibble: 234 x 10
##    manufacturer model      displ  year   cyl trans        cty   hwy displ2 vol_per_cyl
##    <chr>        <chr>      <dbl> <int> <int> <chr>      <int> <int>  <dbl>       <dbl>
##  1 audi         a4           1.8  1999     4 auto(l5)      18    29   3.24        0.45
##  2 audi         a4           1.8  1999     4 manual(m5)    21    29   3.24        0.45
##  3 audi         a4           2    2008     4 manual(m6)    20    31   4           0.5 
##  4 audi         a4           2    2008     4 auto(av)      21    30   4           0.5 
##  5 audi         a4           2.8  1999     6 auto(l5)      16    26   7.84        0.47
##  6 audi         a4           2.8  1999     6 manual(m5)    18    26   7.84        0.47
##  7 audi         a4           3.1  2008     6 auto(av)      18    27   9.61        0.52
##  8 audi         a4 quattro   1.8  1999     4 manual(m5)    18    26   3.24        0.45
##  9 audi         a4 quattro   1.8  1999     4 auto(l5)      16    25   3.24        0.45
## 10 audi         a4 quattro   2    2008     4 manual(m6)    20    28   4           0.5 
## #  with 224 more rows

Create a new data frame called mpg3 that contains this new data frame with the two extra columns

mpg3 <- mpg2 %>% [ your code from the previous step ]

Task 8

Working with mpg3, use the arrange verb to re-order the rows in descending order of vol_per_cyl

## # A tibble: 234 x 10
##    manufacturer model               displ  year   cyl trans        cty   hwy displ2 vol_per_cyl
##    <chr>        <chr>               <dbl> <int> <int> <chr>      <int> <int>  <dbl>       <dbl>
##  1 chevrolet    corvette              7    2008     8 manual(m6)    15    24   49          0.88
##  2 chevrolet    k1500 tahoe 4wd       6.5  1999     8 auto(l4)      14    17   42.2        0.81
##  3 chevrolet    corvette              6.2  2008     8 manual(m6)    16    26   38.4        0.78
##  4 chevrolet    corvette              6.2  2008     8 auto(s6)      15    25   38.4        0.78
##  5 jeep         grand cherokee 4wd    6.1  2008     8 auto(l5)      11    14   37.2        0.76
##  6 chevrolet    c1500 suburban 2wd    6    2008     8 auto(l4)      12    17   36          0.75
##  7 dodge        durango 4wd           5.9  1999     8 auto(l4)      11    15   34.8        0.74
##  8 dodge        ram 1500 pickup 4wd   5.9  1999     8 auto(l4)      11    15   34.8        0.74
##  9 chevrolet    c1500 suburban 2wd    5.7  1999     8 auto(l4)      13    17   32.5        0.71
## 10 chevrolet    corvette              5.7  1999     8 manual(m6)    16    26   32.5        0.71
## #  with 224 more rows
…
Working again with mpg3, use the group_by verb to group this data frame by manufacturer and year. Then, for each unique pair of manufacturer and year, calculate the largest value of vol_per_cyl. Call this new column max_vol_per_cyl.

## # A tibble: 30 x 3
## # Groups:   manufacturer [15]
##    manufacturer  year max_vol_per_cyl
##    <chr>        <int>           <dbl>
##  1 audi          1999            0.47
##  2 audi          2008            0.52
##  3 chevrolet     1999            0.81
##  4 chevrolet     2008            0.88
##  5 dodge         1999            0.74
##  6 dodge         2008            0.71
##  7 ford          1999            0.7 
##  8 ford          2008            0.68
##  9 honda         1999            0.4 
## 10 honda         2008            0.5 
## #  with 20 more rows
…
Exercise set 4

Data for tasks 1214 is obtained by installing the nycflights13 package:

install.packages("nycflights13")

Load these packages

library(tidyverse)
library(nycflights13)
flights %>% tbl_df

## # A tibble: 336,776 x 19
##     year month   day dep_time sched_dep_time dep_delay arr_time sched_arr_time arr_delay carrier flight tailnum origin dest 
##    <int> <int> <int>    <int>          <int>     <dbl>    <int>          <int>     <dbl> <chr>    <int> <chr>   <chr>  <chr>
##  1  2013     1     1      517            515         2      830            819        11 UA        1545 N14228  EWR    IAH  
##  2  2013     1     1      533            529         4      850            830        20 UA        1714 N24211  LGA    IAH  
##  3  2013     1     1      542            540         2      923            850        33 AA        1141 N619AA  JFK    MIA  
##  4  2013     1     1      544            545        -1     1004           1022       -18 B6         725 N804JB  JFK    BQN  
##  5  2013     1     1      554            600        -6      812            837       -25 DL         461 N668DN  LGA    ATL  
##  6  2013     1     1      554            558        -4      740            728        12 UA        1696 N39463  EWR    ORD  
##  7  2013     1     1      555            600        -5      913            854        19 B6         507 N516JB  EWR    FLL  
##  8  2013     1     1      557            600        -3      709            723       -14 EV        5708 N829AS  LGA    IAD  
##  9  2013     1     1      557            600        -3      838            846        -8 B6          79 N593JB  JFK    MCO  
## 10  2013     1     1      558            600        -2      753            745         8 AA         301 N3ALAA  LGA    ORD  
## #  with 336,766 more rows, and 5 more variables: air_time <dbl>, distance <dbl>, hour <dbl>, minute <dbl>,
## #   time_hour <dttm>
…
weather %>% tbl_df

## # A tibble: 26,115 x 15
##    origin  year month   day  hour  temp  dewp humid wind_dir wind_speed wind_gust precip pressure visib time_hour          
##    <chr>  <int> <int> <int> <int> <dbl> <dbl> <dbl>    <dbl>      <dbl>     <dbl>  <dbl>    <dbl> <dbl> <dttm>             
##  1 EWR     2013     1     1     1  39.0  26.1  59.4      270      10.4         NA      0    1012     10 2013-01-01 01:00:00
##  2 EWR     2013     1     1     2  39.0  27.0  61.6      250       8.06        NA      0    1012.    10 2013-01-01 02:00:00
##  3 EWR     2013     1     1     3  39.0  28.0  64.4      240      11.5         NA      0    1012.    10 2013-01-01 03:00:00
##  4 EWR     2013     1     1     4  39.9  28.0  62.2      250      12.7         NA      0    1012.    10 2013-01-01 04:00:00
##  5 EWR     2013     1     1     5  39.0  28.0  64.4      260      12.7         NA      0    1012.    10 2013-01-01 05:00:00
##  6 EWR     2013     1     1     6  37.9  28.0  67.2      240      11.5         NA      0    1012.    10 2013-01-01 06:00:00
##  7 EWR     2013     1     1     7  39.0  28.0  64.4      240      15.0         NA      0    1012.    10 2013-01-01 07:00:00
##  8 EWR     2013     1     1     8  39.9  28.0  62.2      250      10.4         NA      0    1012.    10 2013-01-01 08:00:00
##  9 EWR     2013     1     1     9  39.9  28.0  62.2      260      15.0         NA      0    1013.    10 2013-01-01 09:00:00
## 10 EWR     2013     1     1    10  41    28.0  59.6      260      13.8         NA      0    1012.    10 2013-01-01 10:00:00
## #  with 26,105 more rows

Task 12

Create two new data frames with subsets of columns from the flights and weather data frames, named flights2 and weather2.

flights2 <- flights %>% select(origin, year, month, day, hour, 
    sched_dep_time, dep_delay, carrier)
weather2 <- weather %>% select(origin, year, month, day, hour, 
    precip, wind_speed, visib)

Write code to perform an inner join between flights and airlines. The output should look like this:

## # A tibble: 336,776 x 9
##    origin  year month   day  hour sched_dep_time dep_delay carrier name                    
##    <chr>  <int> <int> <int> <dbl>          <int>     <dbl> <chr>   <chr>                   
##  1 EWR     2013     1     1     5            515         2 UA      United Air Lines Inc.   
##  2 LGA     2013     1     1     5            529         4 UA      United Air Lines Inc.   
##  3 JFK     2013     1     1     5            540         2 AA      American Airlines Inc.  
##  4 JFK     2013     1     1     5            545        -1 B6      JetBlue Airways         
##  5 LGA     2013     1     1     6            600        -6 DL      Delta Air Lines Inc.    
##  6 EWR     2013     1     1     5            558        -4 UA      United Air Lines Inc.   
##  7 EWR     2013     1     1     6            600        -5 B6      JetBlue Airways         
##  8 LGA     2013     1     1     6            600        -3 EV      ExpressJet Airlines Inc.
##  9 JFK     2013     1     1     6            600        -3 B6      JetBlue Airways         
## 10 LGA     2013     1     1     6            600        -2 AA      American Airlines Inc.  
## #  with 336,766 more rows

Which column was used as the key for this join?

Next, write code to perform an outer join between flights2 and weather2 that includes all rows from flights2. Your output should look like this:

## Joining, by = c("origin", "year", "month", "day", "hour")

## # A tibble: 336,776 x 11
##    origin  year month   day  hour sched_dep_time dep_delay carrier precip wind_speed visib
##    <chr>  <int> <int> <int> <dbl>          <int>     <dbl> <chr>    <dbl>      <dbl> <dbl>
##  1 EWR     2013     1     1     5            515         2 UA           0       12.7    10
##  2 LGA     2013     1     1     5            529         4 UA           0       15.0    10
##  3 JFK     2013     1     1     5            540         2 AA           0       15.0    10
##  4 JFK     2013     1     1     5            545        -1 B6           0       15.0    10
##  5 LGA     2013     1     1     6            600        -6 DL           0       16.1    10
##  6 EWR     2013     1     1     5            558        -4 UA           0       12.7    10
##  7 EWR     2013     1     1     6            600        -5 B6           0       11.5    10
##  8 LGA     2013     1     1     6            600        -3 EV           0       16.1    10
##  9 JFK     2013     1     1     6            600        -3 B6           0       13.8    10
## 10 LGA     2013     1     1     6            600        -2 AA           0       16.1    10
## #  with 336,766 more rows
…
Now write code to create a new data frame based on flights2 joined with weather2

The new data frame should only include rows corresponding with flights that had ideal conditions upon departure.

Name this new data frame good_weather_delays

Your code should include a call to inner_join and another call to filter. Use the %>% operator to chain all of this together

The data frame good_weather_delays should look like this:

## # A tibble: 8,278 x 11
##    origin  year month   day  hour sched_dep_time dep_delay carrier precip wind_speed visib
##    <chr>  <int> <int> <int> <dbl>          <int>     <dbl> <chr>    <dbl>      <dbl> <dbl>
##  1 LGA     2013     1     5    18           1800        -5 DL           0          0    10
##  2 LGA     2013     1     5    18           1810       -11 MQ           0          0    10
##  3 LGA     2013     1     5    18           1800         0 EV           0          0    10
##  4 LGA     2013     1     5    18           1805        -3 DL           0          0    10
##  5 LGA     2013     1     5    18           1800        11 WN           0          0    10
##  6 LGA     2013     1     5    18           1820        -3 DL           0          0    10
##  7 LGA     2013     1     5    18           1830       -10 MQ           0          0    10
##  8 LGA     2013     1     5    18           1810        15 AA           0          0    10
##  9 LGA     2013     1     5    18           1855        -6 US           0          0    10
## 10 LGA     2013     1     7    16           1600        -9 US           0          0    10
## #  with 8,268 more rows
…
