Data visualisation, web scraping, and text analysis in R: Session 4
…
tm works with a variety of repository and file types (aka Sources)

When scraping data from the web, we typically just use a VectorSource (i.e., text are stored in character vectors)

The Document is the basic unit of analysis, and might be a few short sentences (e.g., tweets) or a much longer text (e.g., a manuscript)

When specifying a VectorSource, each element of the character vector is considered a separate document

The TermDocumentMatrix and DocumentTermMatrix are sparse matrices whose cells contain the number of co-occurances of each word in each document in the corpus

library(tidyverse)
library(nuforc)
reports %>% select(reported, location, shape, report)

## # A tibble: 1,736 x 4
##    reported          location     shape   report                                  
##    <chr>             <chr>        <chr>   <chr>                                   
##  1 5/9/2019 7:46:06 Cincinnati, "Trian "Large V/triangle shaped craft that mov
##  2 5/9/2019 7:59:49 Statesboro, "Trian "Two UFO's near Statesboro, Ga. 11:00 P
##  3 5/8/2019 8:14:38 Norfolk, VA  "Light" "Extremely loud bang, light spotted in 
##  4 5/8/2019 6:42:52 Fremont, NH  "Other" "Very large floating aircraft with nav-
##  5 5/8/2019 1:19:02 Saint Georg "Other" "I started noticing a huge flash of lig
##  6 5/8/2019 12:34:0 Highlands,  "Light" "I have about 10 recordings from last n
##  7 5/7/2019 8:33:38 Palm Coast, "Spher "05/07/19 I saw 2 spheres inside were w
##  8 5/9/2019 1:08:08 Mystic Isla ""      "Radiant wide lights flashing three tim
##  9 5/7/2019 7:26:23 Hobart, IN   "Other" "Absolutely still object, very large, h
## 10 5/7/2019 5:27:22 Seattle, WA  "Light" "Ok so I'm just gonna say this happens 
## #  with 1,726 more rows
…
## <<SimpleCorpus>>
## Metadata:  corpus specific: 1, document level (indexed): 0
## Content:  documents: 1625

ufo_text[1557] %>% str_wrap %>% cat

## There was 3 consecutive flashes over the sky, almost like it was building up and
## the last one was almost like day time.

tdm <- ufo_corp %>% TermDocumentMatrix
tdm_long <- with(tdm, tibble(term = i, document = j, count = v))
tdm_long

## # A tibble: 89,400 x 3
##     term document count
##    <int>    <int> <dbl>
##  1     1        1     1
##  2     2        1     1
##  3     3        1     1
##  4     4        1     1
##  5     5        1     1
##  6     6        1     1
##  7     7        1     1
##  8     8        1     1
##  9     9        1     1
## 10    10        1     1
## #  with 89,390 more rows
…
Use dplyr to aggregate counts across documents

tdm_long <- tdm_long %>% mutate(term = factor(term, labels = Terms(tdm)))
tdm_long %>% group_by(term) %>% summarise(count = sum(count)) %>% 
  arrange(desc(count))  

## # A tibble: 8,043 x 2
##    term   count
##    <fct>  <dbl>
##  1 light   3340
##  2 object  1612
##  3 sky     1608
##  4 look    1428
##  5 move    1389
##  6 like    1192
##  7 saw     1113
##  8 see     1006
##  9 bright   943
## 10 one      897
## #  with 8,033 more rows

Alternative method to achieve same end from the tidytext package:

tdm %>% tidytext::tidy()

## # A tibble: 89,400 x 3
##    term   document count
##    <chr>  <chr>    <dbl>
##  1 1520   1            1
##  2 1520k  1            1
##  3 910    1            1
##  4 abrupt 1            1
##  5 along  1            1
##  6 awar   1            1
##  7 black  1            1
##  8 caught 1            1
##  9 chang  1            1
## 10 color  1            1
## #  with 89,390 more rows
…
tdm %>% findAssocs("sky", 0.25)

## $sky
##  night   move object across second    see  clear 
##   0.30   0.29   0.29   0.29   0.25   0.25   0.25

More about tidytext

library(tidytext)
tidy_reports <- tibble(report = ufo_text) %>% mutate(id = row_number()) %>% 
    unnest_tokens(word, report)
tidy_reports

## # A tibble: 243,069 x 2
##       id word       
##    <int> <chr>      
##  1     1 large      
##  2     1 v          
##  3     1 triangle   
##  4     1 shaped     
##  5     1 craft      
##  6     1 that       
##  7     1 moved      
##  8     1 silently   
##  9     1 disappeared
## 10     1 at         
## #  with 243,059 more rows

Removing stop words with tidytext

cleaned_reports <- tidy_reports %>% anti_join(get_stopwords(), by = "word")

cleaned_reports %>% count(word, sort = TRUE)

## # A tibble: 9,890 x 2
##    word       n
##    <chr>  <int>
##  1 light   1696
##  2 lights  1636
##  3 sky     1574
##  4 object  1278
##  5 like    1211
##  6 saw     1115
##  7 bright   894
##  8 one      880
##  9 see      871
## 10 moving   807
## #  with 9,880 more rows
…
The order of words does not affect inferences (as if the words were dropped into a bag)

Term-document matrices are inputs to bag-of-words analysis

Scoring a term-document matrix

words <- c("moving light night midnight minute white red pink orange yellow color star moon erratic flight slow wobble rotate hover pendulum speed eject shot climb dive") %>% 
    stem_and_split()  # see .Rmd for source

Sums occurrances of terms within each document (very quickly)

tdm %>% tm_term_score(., words) %>% tibble(document = names(.), score = .)

## # A tibble: 1,625 x 2
##    document score
##    <chr>    <dbl>
##  1 1            6
##  2 2            8
##  3 3            7
##  4 4            3
##  5 5            1
##  6 6            5
##  7 7            8
##  8 8            8
##  9 9            8
## 10 10           5
## #  with 1,615 more rows
…
The current state of the art goes beyond the bag-of-words approach, taking advantage of word order, proximity to negating words, etc.

But the underlying concept is the same  some words are highly positive or negative, and if they occur in a sentence, then the sentence is probably positive or negative

Word lists

Typical lists include positive-negative, and VAD

Top 99 percent V/A/D words:

word_scores_url <- "http://crr.ugent.be/papers/Ratings_Warriner_et_al.csv"
(words <- readr::read_csv(word_scores_url) %>% select(Word, valence = V.Mean.Sum, 
    arousal = A.Mean.Sum, dominance = D.Mean.Sum))

## # A tibble: 13,915 x 4
##    Word        valence arousal dominance
##    <chr>         <dbl>   <dbl>     <dbl>
##  1 aardvark       6.26    2.41      4.27
##  2 abalone        5.3     2.65      4.95
##  3 abandon        2.84    3.73      3.32
##  4 abandonment    2.63    4.95      2.64
##  5 abbey          5.85    2.2       5   
##  6 abdomen        5.43    3.68      5.15
##  7 abdominal      4.48    3.5       5.32
##  8 abduct         2.42    5.9       2.75
##  9 abduction      2.05    5.33      3.02
## 10 abide          5.52    3.26      5.33
## #  with 13,905 more rows

words %>% gather(variable, value, -Word) %>% group_by(variable) %>% filter(percent_rank(value) > 
    0.99) %>% ungroup %>% arrange(Word)

## # A tibble: 409 x 3
##    Word           variable  value
##    <chr>          <chr>     <dbl>
##  1 ablaze         arousal    6.75
##  2 acceleration   arousal    6.73
##  3 accomplish     dominance  7.27
##  4 accomplishment valence    8.05
##  5 achieve        valence    7.75
##  6 achievement    dominance  7.17
##  7 admire         dominance  7.33
##  8 advantage      dominance  7.19
##  9 adventurous    arousal    6.67
## 10 advocate       dominance  7.26
## #  with 399 more rows

Arousal scores for word stems

Get the scores for words scoring highest on arousal

Then stem the words so they match with our UFO data

(arousal_stems <- words %>% select(Word, arousal) %>% 
   mutate(term = stemDocument(Word)))

## # A tibble: 13,915 x 3
##    Word        arousal term    
##    <chr>         <dbl> <chr>   
##  1 aardvark       2.41 aardvark
##  2 abalone        2.65 abalon  
##  3 abandon        3.73 abandon 
##  4 abandonment    4.95 abandon 
##  5 abbey          2.2  abbey   
##  6 abdomen        3.68 abdomen 
##  7 abdominal      3.5  abdomin 
##  8 abduct         5.9  abduct  
##  9 abduction      5.33 abduct  
## 10 abide          3.26 abid    
## #  with 13,905 more rows

Merge scores and TDM

Join scores with the term-document matrix (in long data frame form)

tdm_long %>% inner_join(arousal_stems)

## # A tibble: 101,680 x 5
##    term   document count Word      arousal
##    <chr>     <int> <dbl> <chr>       <dbl>
##  1 abrupt        1     1 abrupt       5.23
##  2 awar          1     1 aware        4.7 
##  3 awar          1     1 awareness    3.73
##  4 black         1     1 black        3.58
##  5 black         1     1 blackness    4.52
##  6 chang         1     1 change       4.05
##  7 color         1     1 color        3.18
##  8 color         1     1 colored      4.73
##  9 color         1     1 colorful     3.59
## 10 color         1     1 coloring     4.41
## #  with 101,670 more rows
…
tidytext approach (without stemming)

cleaned_reports

## # A tibble: 125,952 x 2
##       id word       
##    <int> <chr>      
##  1     1 large      
##  2     1 v          
##  3     1 triangle   
##  4     1 shaped     
##  5     1 craft      
##  6     1 moved      
##  7     1 silently   
##  8     1 disappeared
##  9     1 incredible 
## 10     1 rate       
## #  with 125,942 more rows
…
Sentences instead of words

d0 <- tibble(report = ufo_text) %>% mutate(id = row_number())
d1 <- d0 %>% unnest_tokens(sentence, report, token = "sentences")
d1

## # A tibble: 14,337 x 2
##       id sentence                                                                 
##    <int> <chr>                                                                    
##  1     1 large v/triangle shaped craft that moved silently.                       
##  2     1 disappeared at incredible rate of speed.                                 
##  3     1 i was driving home when something very large in the eye caught my eye.   
##  4     1 i was stopped at a light near my home and only got 15-20 secs of view.   
##  5     1 the craft was very large v/triangle shape. 9-10 lights lining the v patt
##  6     1 i heard no sound from the craft.                                         
##  7     1 the craft was heading ne at an estimated 15-20k feet.                    
##  8     1 dark in color either black or dark gray.                                 
##  9     1 it made 2 movements.                                                     
## 10     1 it seemed to descend rapidly and then abruptly shot out of sight along t
## #  with 14,327 more rows

d2 <- d1 %>% group_by(id) %>% mutate(sentence_id = row_number()) %>% unnest_tokens(word, 
    sentence, token = "words") %>% ungroup()
d2

## # A tibble: 243,069 x 3
##       id sentence_id word       
##    <int>       <int> <chr>      
##  1     1           1 large      
##  2     1           1 v          
##  3     1           1 triangle   
##  4     1           1 shaped     
##  5     1           1 craft      
##  6     1           1 that       
##  7     1           1 moved      
##  8     1           1 silently   
##  9     1           2 disappeared
## 10     1           2 at         
## #  with 243,059 more rows
…
